<svg width="21" height="25" viewBox="0 0 21 25" fill="none" xmlns="http://www.w3.org/2000/svg">
<path d="M20.27 17.6177C18.695 16.2865 17.7918 14.3406 17.7918 12.2792V9.375C17.7918 5.70938 15.0689 2.675 11.5418 2.16667V1.04167C11.5418 0.465625 11.0752 0 10.5002 0C9.92516 0 9.4585 0.465625 9.4585 1.04167V2.16667C5.93037 2.675 3.2085 5.70938 3.2085 9.375V12.2792C3.2085 14.3406 2.30537 16.2865 0.720996 17.626C0.315788 17.9729 0.0834961 18.4771 0.0834961 19.0104C0.0834961 20.0156 0.901205 20.8333 1.90641 20.8333H19.0939C20.0991 20.8333 20.9168 20.0156 20.9168 19.0104C20.9168 18.4771 20.6845 17.9729 20.27 17.6177Z" fill="white"/>
<path d="M10.5001 25C12.3866 25 13.9647 23.6552 14.3272 21.875H6.67303C7.03553 23.6552 8.61366 25 10.5001 25Z" fill="white"/>
</svg>
