<svg width="25" height="25" viewBox="0 0 25 25" fill="none" xmlns="http://www.w3.org/2000/svg">
<path d="M10.9374 8.33301H8.85403C8.56654 8.33301 8.33319 8.56635 8.33319 8.85385V15.1038C8.33319 15.3913 8.56654 15.6246 8.85403 15.6246H10.9374C11.2249 15.6246 11.4582 15.3913 11.4582 15.1038V8.85385C11.4582 8.56635 11.2249 8.33301 10.9374 8.33301Z" fill="white"/>
<path d="M6.77079 11.458H4.68747C4.39997 11.458 4.16663 11.6914 4.16663 11.9789V15.1038C4.16663 15.3913 4.39997 15.6247 4.68747 15.6247H6.77079C7.05829 15.6247 7.29164 15.3913 7.29164 15.1038V11.9789C7.29159 11.6914 7.05829 11.458 6.77079 11.458Z" fill="white"/>
<path d="M15.104 5.20801H13.0207C12.7332 5.20801 12.4998 5.44136 12.4998 5.72885V15.1038C12.4998 15.3913 12.7332 15.6246 13.0207 15.6246H15.104C15.3915 15.6246 15.6248 15.3913 15.6248 15.1038V5.72885C15.6248 5.44136 15.3915 5.20801 15.104 5.20801Z" fill="white"/>
<path d="M24.6945 23.2216L18.4769 17.004C19.9478 15.2082 20.8331 12.9144 20.8331 10.4165C20.8331 4.67285 16.1603 0 10.4166 0C4.6729 0 0 4.67285 0 10.4165C0 16.1602 4.67285 20.8331 10.4165 20.8331C12.9144 20.8331 15.2082 19.9477 17.004 18.4769L23.2216 24.6945C23.4248 24.8977 23.6914 24.9998 23.9581 24.9998C24.2248 24.9998 24.4915 24.8977 24.6946 24.6945C25.1019 24.2873 25.1019 23.6289 24.6945 23.2216ZM10.4165 18.7498C5.82182 18.7498 2.08328 15.0113 2.08328 10.4165C2.08328 5.82177 5.82182 2.08328 10.4165 2.08328C15.0113 2.08328 18.7498 5.82182 18.7498 10.4165C18.7498 15.0113 15.0113 18.7498 10.4165 18.7498Z" fill="white"/>
</svg>
